…
  select(-contains("P Value")) %>% 
  pivot_longer(
    -State,
    names_to = "age_year",
    values_to = "percent"
  ) %>% 
  separate(age_year, into = c("age", "year"), sep = "\\(") %>% #this seperares age and year by an open perentecy
  mutate(
    year = str_replace(year, "\\)", ""), # detect a close perentacy and replace with nothing. 
    percent = str_replace(percent, "[a-c]$", ""), # detect a charecter of a-c, which is at the end of the string only, and replace with nothing. 
    percent = as.numeric(percent) #make perecnt numeric, before it was charecter because it included a number before
  )
```

    ## # A tibble: 560 x 4
    ##    State      age   year      percent
    ##    <chr>      <chr> <chr>       <dbl>
    ##  1 Total U.S. 12+   2013-2014   12.9 
    ##  2 Total U.S. 12+   2014-2015   13.4 
    ##  3 Total U.S. 12-17 2013-2014   13.3 
    ##  4 Total U.S. 12-17 2014-2015   12.9 
    ##  5 Total U.S. 18-25 2013-2014   31.8 
    ##  6 Total U.S. 18-25 2014-2015   32.1 
    ##  7 Total U.S. 26+   2013-2014    9.63
    ##  8 Total U.S. 26+   2014-2015   10.2 
    ##  9 Total U.S. 18+   2013-2014   12.9 
    ## 10 Total U.S. 18+   2014-2015   13.4 
    ## # ... with 550 more rows
…
